\relax 
\citation{morgan_interplanetary_2018-1}
\citation{morgan_interplanetary_2018-1}
\@writefile{toc}{\contentsline {section}{\numberline {1}Methodology}{3}}
\newlabel{sec:methodology}{{1}{3}}
\@writefile{toc}{\contentsline {subsection}{\numberline {1.1}The Variability Method}{3}}
\newlabel{eq:scintfluximg}{{1}{3}}
\newlabel{eq:scintindexvarimg}{{2}{3}}
\@writefile{toc}{\contentsline {subsubsection}{\numberline {1.1.1}Imaging Process}{3}}
\newlabel{eq:flagimg}{{3}{3}}
\citation{manoharan_three-dimensional_1993}
\citation{manoharan_three-dimensional_1993}
\@writefile{toc}{\contentsline {subsubsection}{\numberline {1.1.2}Beamformed Adaptation}{4}}
\@writefile{toc}{\contentsline {subsection}{\numberline {1.2}The Power Spectrum Method}{4}}
\newlabel{eq:sigmoid}{{4}{4}}
\newlabel{eq:scintpower}{{5}{4}}
\@writefile{toc}{\contentsline {subsubsection}{\numberline {1.2.1}Imaging}{4}}
\@writefile{toc}{\contentsline {subsubsection}{\numberline {1.2.2}Beamformed}{5}}
\newlabel{eq:newp}{{6}{5}}
\bibstyle{astron}
\bibdata{ref_scintillation.bib}
\bibcite{manoharan_three-dimensional_1993}{{1}{1993}{{Manoharan}}{{}}}
\bibcite{morgan_interplanetary_2018-1}{{2}{2018}{{Morgan et~al.}}{{}}}
\@writefile{toc}{\contentsline {section}{\numberline {2}Conclusions}{6}}
\newlabel{sec:conclusion}{{2}{6}}
\@writefile{toc}{\contentsline {subsection}{\numberline {2.1}References}{6}}
\newlabel{sec:ref}{{2.1}{6}}
\@writefile{toc}{\contentsline {section}{\numberline {A}Pseudo-code Implementation}{7}}
\newlabel{ap:fft}{{A}{7}}
