This is BibTeX, Version 0.99d (TeX Live 2019/dev/Debian)
Capacity: max_strings=100000, hash_size=100000, hash_prime=85009
The top-level auxiliary file: ./methodwriteup.aux
The style file: astron.bst
Database file #1: ref_scintillation.bib
You've used 2 entries,
            2251 wiz_defined-function locations,
            491 strings with 3774 characters,
and the built_in function-call counts, 886 in all, are:
= -- 83
> -- 55
< -- 1
+ -- 20
- -- 20
* -- 95
:= -- 162
add.period$ -- 0
call.type$ -- 2
change.case$ -- 18
chr.to.int$ -- 2
cite$ -- 2
duplicate$ -- 28
empty$ -- 43
format.name$ -- 22
if$ -- 160
int.to.chr$ -- 1
int.to.str$ -- 0
missing$ -- 2
newline$ -- 11
num.names$ -- 6
pop$ -- 15
preamble$ -- 1
purify$ -- 20
quote$ -- 0
skip$ -- 22
stack$ -- 0
substring$ -- 47
swap$ -- 6
text.length$ -- 0
text.prefix$ -- 0
top$ -- 0
type$ -- 12
warning$ -- 0
while$ -- 6
width$ -- 0
write$ -- 24
